Loan Program,Purpose of Loan,Status,Branch Code,Application Id,Borrower Name,Loan Amount,Interest Rate,Total Income,Cash Available,Estimated Value,Lock Exp,Monthly Liab,Cash Req'd to Close,LTV/CLTV,P&I Payments,Ratios,Mos Reserves,PITI,Bwr Mid-FICO,Closing Date,Co-Bwr Mid-FICO,Street Address,
VA FIXED 30YR- 41,Purchase,Submitted to Underwriting - Full,990,1009991,AMERICA ANDY,354375,2.500,1000,.00,400000,,0,.00,87.500/87.500,1400.21,50.200/50.200,0,1501.87,0,10/15/18,0,125 MAIN STREET 2ND BLOC,
VA FIXED 30YR- 41,Purchase,Submitted to Underwriting - Full,990,1009992,AMERICA ANDY,354375,2.500,1000,.00,400000,,0,.00,87.500/87.500,1400.21,50.200/50.200,0,1501.87,0,10/15/18,0,125 MAIN STREET 2ND BLOC,
VA FIXED 30YR- 41,Refinance,Submitted to Underwriting - Full,990,1009993,ANDY AMERICA,361550,2.500,1000,.00,500000,,0,.00,70.000/70.000,1428.56,53.000/53.000,0,1530.22,0,10/15/18,0,125 MAIN STREET 2ND BLOC,
VA FIXED 30YR- 41,Refinance,Submitted to Underwriting - Credit,990,1009999,ANDY AMERICA,361550,2.500,1000,.00,500000,,0,.00,70.000/70.000,1428.56,53.000/53.000,0,1530.22,0,10/15/18,0,125 MAIN STREET 2ND BLOC,
