BranchCode,ApplicationId,BorrowerName,Loan Amount,Interest Rate,Total Income,Cash Available,Estimated Value,Lock Exp,Monthly Liab,Cash Req'd to Close,LTV/CLTV,P&I Payments,Ratios,Mos Reserves,Status,PITI,Bwr Mid-FICO,Loan Program,Purpose of Loan,Closing Date,Co-Bwr Mid-FICO,Street Address,
990,1007463,ANDY AMERICA AMY AMERICA,350000,2.500,1000,.00,500000,,0,.00,70.000/70.000,1382.92,38.300/38.300,0,PHONE APP,1382.92,0,FNMA 30YR FXD O/O,Refinance,09/18/18,0,125 MAIN STREET 2ND BLOC,
990,1007465,ANDY AMERICA AMY AMERICA,350000,2.500,1000,.00,400000,,0,.00,88.000/88.000,1382.92,5.800/5.800,0,APPROVED,2057.91,650,FNMA 30YR FXD O/O,Purchase,09/18/18,0,125 MAIN STREET 2ND BLOC,
990,1007493,ANDY AMERICA AMY AMERICA,350000,2.500,1000,.00,400000,,0,.00,88.000/88.000,1382.92,96.600/96.600,0,PHONE APP,1966.25,0,FNMA 30YR FXD O/O,Purchase,09/18/18,0,125 MAIN STREET 2ND BLOC,
990,1007494,ANDY AMERICA AMY AMERICA,350000,2.500,1000,.00,400000,,0,.00,87.500/87.500,1382.92,48.400/48.400,0,PHONE APP,1483.95,0,RURAL HOUSING 30YR STREAMLINE,Streamline Refi,09/18/18,0,125 MAIN STREET 2ND BLOC,
990,1007508,ANDY AMERICA AMY AMERICA,350000,2.500,1000,.00,500000,,0,.00,70.000/70.000,1382.92,38.300/38.300,0,PHONE APP,1382.92,0,FNMA 30YR FXD O/O,Refinance,09/18/18,0,125 MAIN STREET 2ND BLOC,
990,1007509,ANDY AMERICA AMY AMERICA,353535,2.500,1000,.00,400000,,0,.00,88.390/88.390,1396.89,59.100/59.100,0,IN PROCESS,1590.60,0,RURAL HOUSING 30YR STREAMLINE,Streamline Refi,09/18/18,0,125 MAIN STREET 2ND BLOC,
990,1007512,ANDY AMERICA AMY AMERICA,350000,2.500,1000,.00,500000,,0,.00,70.000/70.000,1382.92,47.500/47.500,0,TO UNDERWR,1474.58,0,FNMA 30YR FXD O/O,Refinance,09/18/18,0,125 MAIN STREET 2ND BLOC,
990,1007519,ANDY AMERICA AMY AMERICA,350000,2.500,1000,.00,500000,,0,.00,70.000/70.000,1382.92,47.500/47.500,0,IN PROCESS,1474.58,0,FNMA 30YR FXD O/O,Refinance,09/18/18,0,125 MAIN STREET 2ND BLOC,
990,1007522,ANDY AMERICA AMY AMERICA,350000,2.500,1000,.00,500000,,0,.00,70.000/70.000,1382.92,38.300/38.300,0,PHONE APP,1382.92,0,FNMA 30YR FXD O/O,Refinance,09/18/18,0,125 MAIN STREET 2ND BLOC,
