<?xml version="1.0" encoding="UTF-8"?>
<!DOCTYPE suite SYSTEM "http://testng.org/testng-1.0.dtd">
<suite guice-stage="DEVELOPMENT" verbose="0" name="Failed suite [Default suite]">
  <listeners>
    <listener class-name="com.tavant.utils.TestReporter"/>
  </listeners>
  <test name="Default test(failed)">
    <classes>
      <class name="com.tavant.kwutils.MyTestCaseExecuter">
        <methods>
          <include name="closeDriver"/>
          <include name="beforeClass"/>
          <include name="afterMethod"/>
          <include name="afterSuite"/>
          <include name="beforeSuite"/>
          <include name="testCase"/>
        </methods>
      </class> <!-- com.tavant.kwutils.MyTestCaseExecuter -->
    </classes>
  </test> <!-- Default test(failed) -->
</suite> <!-- Failed suite [Default suite] -->
