com\guild\mycircle\pages\WebApps.class
com\guild\mykeyreg\util\Util.class
com\guild\mycircle\pages\MyApps.class
com\guild\sherlock\pages\Sherlock.class
com\guild\mykeyreg\pages\MyKey.class
com\guild\mykey\pages\MyKey.class
com\guild\mycircle\pages\MyApps$1.class
com\guild\mycircle\util\Util.class
com\guild\mycircle\pages\WebApps$MyComp.class
com\guild\mykey\util\Util.class
